%YAML 1.1
%TAG !u! tag:unity3d.com,2011:
--- !u!221 &22100000
AnimatorOverrideController:
  m_ObjectHideFlags: 0
  m_PrefabParentObject: {fileID: 0}
  m_PrefabInternal: {fileID: 0}
  m_Name: Enemy Strong
  m_Controller: {fileID: 9100000, guid: 4fcfedec3d822cb41a533f1af9417bfd, type: 2}
  m_Clips:
  - m_OriginalClip: {fileID: 7400000, guid: 99912fb00d2aed94080b5530f4e59d19, type: 2}
    m_OverrideClip: {fileID: 7400000, guid: 48696ac1cd710cd4981e6ad8e3f6ec1b, type: 2}
  - m_OriginalClip: {fileID: 7400000, guid: c931601931ec23746be6a7f66535242b, type: 2}
    m_OverrideClip: {fileID: 7400000, guid: d405dc2bf95e90f4e96f1fa68dc741ff, type: 2}
